{
  "project_info": {
    "project_number": "956636994936",
    "firebase_url": "https://hhwtt-101087.firebaseio.com",
    "project_id": "hhwtt-101087",
    "storage_bucket": "hhwtt-101087.appspot.com"
  },
  "client": [
    {
      "client_info": {
        "mobilesdk_app_id": "1:956636994936:android:b43fbffabfa1d2b1",
        "android_client_info": {
          "package_name": "giavu.hh.wtt"
        }
      },
      "oauth_client": [
        {
          "client_id": "956636994936-8q8us92q0g10sribjmq6b98gdghjmris.apps.googleusercontent.com",
          "client_type": 1,
          "android_info": {
            "package_name": "giavu.hh.wtt",
            "certificate_hash": "706780a5e4b11b6831d4044a8e9084b67401ea61"
          }
        },
        {
          "client_id": "956636994936-nrkjbsvj9tnj7meh86mah4o0ml797aco.apps.googleusercontent.com",
          "client_type": 3
        },
        {
          "client_id": "956636994936-nrkjbsvj9tnj7meh86mah4o0ml797aco.apps.googleusercontent.com",
          "client_type": 3
        }
      ],
      "api_key": [
        {
          "current_key": "AIzaSyBYZoH9Qj8bsPopexp8DDXa8y3XFNgoBIg"
        }
      ],
      "services": {
        "analytics_service": {
          "status": 1
        },
        "appinvite_service": {
          "status": 2,
          "other_platform_oauth_client": [
            {
              "client_id": "956636994936-nrkjbsvj9tnj7meh86mah4o0ml797aco.apps.googleusercontent.com",
              "client_type": 3
            }
          ]
        },
        "ads_service": {
          "status": 2
        }
      }
    }
  ],
  "configuration_version": "1"
}